%YAML 1.1
%TAG !u! tag:unity3d.com,2011:
--- !u!74 &7400000
AnimationClip:
  m_ObjectHideFlags: 0
  m_PrefabParentObject: {fileID: 0}
  m_PrefabInternal: {fileID: 0}
  m_Name: Fall Animation
  serializedVersion: 6
  m_Legacy: 0
  m_Compressed: 0
  m_UseHighQualityCurve: 1
  m_RotationCurves: []
  m_CompressedRotationCurves: []
  m_EulerCurves: []
  m_PositionCurves: []
  m_ScaleCurves: []
  m_FloatCurves: []
  m_PPtrCurves:
  - curve:
    - time: 0
      value: {fileID: 2100000, guid: e00c5e035cc99924dac9f2687a8423cd, type: 2}
    - time: 0.16666667
      value: {fileID: 2100000, guid: 6149189a8453bf844b33ff2ba2261f92, type: 2}
    - time: 0.33333334
      value: {fileID: 2100000, guid: f4449793c30bc6142a4c0f4e4e75d8c5, type: 2}
    - time: 0.5
      value: {fileID: 2100000, guid: ceaef40f43f5da144bd47bd174f5668f, type: 2}
    attribute: m_Materials.Array.data[0]
    path: 
    classID: 23
    script: {fileID: 0}
  m_SampleRate: 60
  m_WrapMode: 0
  m_Bounds:
    m_Center: {x: 0, y: 0, z: 0}
    m_Extent: {x: 0, y: 0, z: 0}
  m_ClipBindingConstant:
    genericBindings:
    - serializedVersion: 2
      path: 0
      attribute: 0
      script: {fileID: 0}
      typeID: 23
      customType: 21
      isPPtrCurve: 1
    pptrCurveMapping:
    - {fileID: 2100000, guid: e00c5e035cc99924dac9f2687a8423cd, type: 2}
    - {fileID: 2100000, guid: 6149189a8453bf844b33ff2ba2261f92, type: 2}
    - {fileID: 2100000, guid: f4449793c30bc6142a4c0f4e4e75d8c5, type: 2}
    - {fileID: 2100000, guid: ceaef40f43f5da144bd47bd174f5668f, type: 2}
  m_AnimationClipSettings:
    serializedVersion: 2
    m_AdditiveReferencePoseClip: {fileID: 0}
    m_AdditiveReferencePoseTime: 0
    m_StartTime: 0
    m_StopTime: 0.51666665
    m_OrientationOffsetY: 0
    m_Level: 0
    m_CycleOffset: 0
    m_HasAdditiveReferencePose: 0
    m_LoopTime: 0
    m_LoopBlend: 0
    m_LoopBlendOrientation: 0
    m_LoopBlendPositionY: 0
    m_LoopBlendPositionXZ: 0
    m_KeepOriginalOrientation: 0
    m_KeepOriginalPositionY: 1
    m_KeepOriginalPositionXZ: 0
    m_HeightFromFeet: 0
    m_Mirror: 0
  m_EditorCurves: []
  m_EulerEditorCurves: []
  m_HasGenericRootTransform: 0
  m_HasMotionFloatCurves: 0
  m_GenerateMotionCurves: 0
  m_Events: []
